{
  "version": "1.0",
  "defaultProvider": "cdnjs",
  "libraries": [
    {
      "library": "jquery-autocomplete@1.0.7",
      "destination": "wwwroot/js/jquery-autocomplete/"
    },
    {
      "library": "jqueryui@1.12.1",
      "destination": "wwwroot/js/jqueryui/"
    },
    {
      "library": "float-label-css@1.0.2",
      "destination": "wwwroot/css/float-label-css/",
      "files": [
        "float-label.min.css",
        "float-label.css"
      ]
    }
  ]
}